Project
…
Task 1

population_summary <- puerto_rico_counts |>
  group_by(agegroup, sex) |>
  summarise(mean_population = mean(population, na.rm = TRUE))

`summarise()` has grouped output by 'agegroup'. You can override using the
`.groups` argument.

print(population_summary)

# A tibble: 36 × 3
# Groups:   agegroup [18]
   agegroup sex    mean_population
   <fct>    <chr>            <dbl>
 1 0-4      female         118887.
 2 0-4      male           124167.
 3 5-9      female         128338.
 4 5-9      male           134028.
 5 10-14    female         137254.
 6 10-14    male           142835.
 7 15-19    female         140546.
 8 15-19    male           145330.
 9 20-24    female         136901.
10 20-24    male           135803.
# ℹ 26 more rows
…
print("Baseline Weekly Statistics (Pre-2017):")

[1] "Baseline Weekly Statistics (Pre-2017):"

print(baseline_stats)

# A tibble: 1,908 × 5
   agegroup sex    week_of_year mean_outcome sd_outcome
   <fct>    <chr>         <dbl>        <dbl>      <dbl>
 1 0-4      female            1         6.09       3.20
 2 0-4      female            2         6.19       3.20
 3 0-4      female            3         5.75       3.17
 4 0-4      female            4         5.44       2.94
 5 0-4      female            5         5.88       3.18
 6 0-4      female            6         6          3.82
 7 0-4      female            7         5.31       2.99
 8 0-4      female            8         5.69       3.23
 9 0-4      female            9         5.78       3.15
10 0-4      female           10         5.09       3.18
# ℹ 1,898 more rows
…
print("Baseline Weekly Statistics With Combined Age Groups:")

[1] "Baseline Weekly Statistics With Combined Age Groups:"

print(baseline_stats_combined)

# A tibble: 530 × 5
   combined_agegroup sex    week_of_year mean_outcome sd_outcome
   <chr>             <chr>         <dbl>        <dbl>      <dbl>
 1 0-14              female            1         7.34       3.50
 2 0-14              female            2         7.41       3.84
 3 0-14              female            3         6.66       3.53
 4 0-14              female            4         6.12       3.27
 5 0-14              female            5         6.5        3.45
 6 0-14              female            6         6.66       3.96
 7 0-14              female            7         6.16       3.28
 8 0-14              female            8         6.34       3.47
 9 0-14              female            9         6.72       3.48
10 0-14              female           10         5.44       3.37
# ℹ 520 more rows
…
