Excess mortality in Puerto Rico after Hurricane María.
…
Task 1

population_summary <- puerto_rico_counts |>
  group_by(agegroup, sex) |>
  summarise(mean_population = mean(population, na.rm = TRUE))

`summarise()` has grouped output by 'agegroup'. You can override using the
`.groups` argument.

print(population_summary)

# A tibble: 36 × 3
# Groups:   agegroup [18]
   agegroup sex    mean_population
   <fct>    <chr>            <dbl>
 1 0-4      female         118887.
 2 0-4      male           124167.
 3 5-9      female         128338.
 4 5-9      male           134028.
 5 10-14    female         137254.
 6 10-14    male           142835.
 7 15-19    female         140546.
 8 15-19    male           145330.
 9 20-24    female         136901.
10 20-24    male           135803.
# ℹ 26 more rows
…
print("Baseline Weekly Statistics (Pre-2017, Excluding High Mortality Weeks):")

[1] "Baseline Weekly Statistics (Pre-2017, Excluding High Mortality Weeks):"

print(baseline_stats)

# A tibble: 1,872 × 5
   agegroup sex    week_of_year mean_outcome sd_outcome
   <fct>    <chr>         <dbl>        <dbl>      <dbl>
 1 0-4      female            1         6.17       3.51
 2 0-4      female            2         6.42       3.30
 3 0-4      female            3         5.39       3.68
 4 0-4      female            4         5.47       2.90
 5 0-4      female            5         5.94       3.17
 6 0-4      female            6         5.75       3.57
 7 0-4      female            7         5.59       3.64
 8 0-4      female            8         5.41       3.04
 9 0-4      female            9         6.03       3.11
10 0-4      female           10         5.16       2.92
# ℹ 1,862 more rows
…
