Excess mortality in Puerto Rico after Hurricane María.
…
Task 1

population_summary <- puerto_rico_counts |>
  group_by(agegroup, sex) |>
  summarise(mean_population = mean(population, na.rm = TRUE))

`summarise()` has grouped output by 'agegroup'. You can override using the
`.groups` argument.

print(population_summary)

# A tibble: 36 × 3
# Groups:   agegroup [18]
   agegroup sex    mean_population
   <fct>    <chr>            <dbl>
 1 0-4      female         118887.
 2 0-4      male           124167.
 3 5-9      female         128338.
 4 5-9      male           134028.
 5 10-14    female         137254.
 6 10-14    male           142835.
 7 15-19    female         140546.
 8 15-19    male           145330.
 9 20-24    female         136901.
10 20-24    male           135803.
# ℹ 26 more rows
…
