Supplementary Methods
…
# Check if data is available
if (nrow(baseline_stats) == 0) {
  stop("No data available for baseline after filtering full weeks.")
}

cat("Baseline Weekly Statistics (Pre-2017):")

Baseline Weekly Statistics (Pre-2017):

print(baseline_stats)

# A tibble: 1,872 × 5
   agegroup sex    week_of_year mean_outcome sd_outcome
   <fct>    <chr>         <dbl>        <dbl>      <dbl>
 1 0-4      female            1         6.08       3.38
 2 0-4      female            2         6.59       3.40
 3 0-4      female            3         5.31       3.64
 4 0-4      female            4         5.47       2.90
 5 0-4      female            5         5.94       3.17
 6 0-4      female            6         5.75       3.57
 7 0-4      female            7         5.59       3.64
 8 0-4      female            8         5.41       3.04
 9 0-4      female            9         6.03       3.11
10 0-4      female           10         5.16       2.92
# ℹ 1,862 more rows
…
# Check if data is available
if (nrow(baseline_stats_combined) == 0) {
  stop("No data available for baseline after filtering full weeks.")
}

print("Baseline Weekly Statistics With Combined Age Groups:")

[1] "Baseline Weekly Statistics With Combined Age Groups:"

print(baseline_stats_combined)

# A tibble: 520 × 5
   combined_agegroup sex    week_of_year mean_outcome sd_outcome
   <chr>             <chr>         <dbl>        <dbl>      <dbl>
 1 0-14              female            1         7.23       3.88
 2 0-14              female            2         7.84       4.13
 3 0-14              female            3         6.16       3.84
 4 0-14              female            4         6.16       3.15
 5 0-14              female            5         6.78       3.47
 6 0-14              female            6         6.25       3.72
 7 0-14              female            7         6.31       3.82
 8 0-14              female            8         6.34       3.30
 9 0-14              female            9         6.66       3.55
10 0-14              female           10         5.72       3.20
# ℹ 510 more rows
…
cat("Baseline Weekly Statistics (Pre-2017, Excluding High Mortality Weeks):")

Baseline Weekly Statistics (Pre-2017, Excluding High Mortality Weeks):

baseline_stats

# A tibble: 1,872 × 5
   agegroup sex    week_of_year mean_outcome sd_outcome
   <fct>    <chr>         <dbl>        <dbl>      <dbl>
 1 0-4      female            1         6.17       3.51
 2 0-4      female            2         6.42       3.30
 3 0-4      female            3         5.39       3.68
 4 0-4      female            4         5.47       2.90
 5 0-4      female            5         5.94       3.17
 6 0-4      female            6         5.75       3.57
 7 0-4      female            7         5.59       3.64
 8 0-4      female            8         5.41       3.04
 9 0-4      female            9         6.03       3.11
10 0-4      female           10         5.16       2.92
# ℹ 1,862 more rows
